,couple12,couple21,hdenom,req_prec,num_aggregates,spk_delta
0,0.1,0.1,3.0,0.1,100,482.0
2,0.1,0.1,7.7,0.1,100,448.667
4,0.2,0.1,3.0,0.1,100,483.33369999999996
6,0.2,0.1,7.7,0.1,100,431.33369999999996
8,0.2,0.1,9.0,0.1,100,246.00000000000003
10,0.2,0.2,3.0,0.1,100,485.33369999999996
12,0.2,0.2,7.7,0.1,100,436.6667
14,0.2,0.2,9.0,0.1,100,258.0
16,0.3,0.1,3.0,0.1,100,488.0003
18,0.3,0.1,7.7,0.1,100,423.3337
20,0.3,0.1,9.0,0.1,100,375.33299999999997
22,0.3,0.2,3.0,0.1,100,489.3333
24,0.3,0.2,7.7,0.1,100,427.33369999999996
26,0.3,0.2,9.0,0.1,100,382.66600000000005
28,0.3,0.3,3.0,0.1,100,489.3333
30,0.3,0.3,7.7,0.1,100,422.0
41,0.3,0.3,9.0,0.1,100,376.0
43,0.4,0.1,3.0,0.1,100,488.66630000000004
45,0.4,0.1,7.7,0.1,100,413.33369999999996
47,0.4,0.1,9.0,0.1,100,371.33399999999995
49,0.4,0.2,3.0,0.1,100,490.0003
51,0.4,0.2,7.7,0.1,100,422.6667
53,0.4,0.2,9.0,0.1,100,386.66700000000003
55,0.4,0.3,3.0,0.1,100,490.0003
57,0.4,0.3,7.7,0.1,100,417.3333
59,0.4,0.3,9.0,0.1,100,379.33299999999997
61,0.4,0.4,3.0,0.1,100,488.0003
63,0.4,0.4,7.7,0.1,100,409.3333
65,0.4,0.4,9.0,0.1,100,354.667
67,0.5,0.1,3.0,0.1,100,489.33369999999996
69,0.5,0.1,7.7,0.1,100,406.66630000000004
71,0.5,0.1,9.0,0.1,100,372.0
73,0.5,0.2,3.0,0.1,100,488.667
75,0.5,0.2,7.7,0.1,100,418.667
77,0.5,0.2,9.0,0.1,100,390.0
79,0.5,0.3,3.0,0.1,100,490.0003
81,0.5,0.3,7.7,0.1,100,410.0
92,0.5,0.3,9.0,0.1,100,374.66700000000003
94,0.5,0.4,3.0,0.1,100,487.9997
96,0.5,0.4,7.7,0.1,100,398.66700000000003
98,0.5,0.4,9.0,0.1,100,351.33299999999997
100,0.5,0.5,3.0,0.1,100,486.0
102,0.5,0.5,7.7,0.1,100,376.667
113,0.5,0.5,9.0,0.1,100,318.0
115,0.6,0.1,3.0,0.1,100,488.667
117,0.6,0.1,7.7,0.1,100,402.6667
119,0.6,0.1,9.0,0.1,100,367.33299999999997
121,0.6,0.2,3.0,0.1,100,492.667
123,0.6,0.2,7.7,0.1,100,414.6667
125,0.6,0.2,9.0,0.1,100,383.33399999999995
127,0.6,0.3,3.0,0.1,100,492.0
129,0.6,0.3,7.7,0.1,100,407.33369999999996
131,0.6,0.3,9.0,0.1,100,370.0
133,0.6,0.4,3.0,0.1,100,489.99967000000004
135,0.6,0.4,7.7,0.1,100,388.0
137,0.6,0.4,9.0,0.1,100,340.66700000000003
139,0.6,0.5,3.0,0.1,100,488.0003
141,0.6,0.5,7.7,0.1,100,368.0
143,0.6,0.5,9.0,0.1,100,296.667
145,0.6,0.6,3.0,0.1,100,486.6667
147,0.6,0.6,7.7,0.1,100,334.667
149,0.6,0.6,9.0,0.1,100,232.66699999999997
151,0.7,0.1,3.0,0.1,100,489.333
153,0.7,0.1,7.7,0.1,100,395.33299999999997
155,0.7,0.1,9.0,0.1,100,364.66600000000005
157,0.7,0.2,3.0,0.1,100,492.667
159,0.7,0.2,7.7,0.1,100,410.6667
161,0.7,0.2,9.0,0.1,100,380.667
163,0.7,0.3,3.0,0.1,100,491.33333
165,0.7,0.3,7.7,0.1,100,404.6667
167,0.7,0.3,9.0,0.1,100,366.0
169,0.7,0.4,3.0,0.1,100,491.33333
171,0.7,0.4,7.7,0.1,100,381.33399999999995
173,0.7,0.4,9.0,0.1,100,328.0
175,0.7,0.5,3.0,0.1,100,490.0
177,0.7,0.5,7.7,0.1,100,354.0
179,0.7,0.5,9.0,0.1,100,271.33299999999997
181,0.7,0.6,3.0,0.1,100,482.667
183,0.7,0.6,7.7,0.1,100,310.0
185,0.7,0.6,9.0,0.1,100,221.33300000000003
187,0.7,0.7,3.0,0.1,100,474.6667
189,0.7,0.7,7.7,0.1,100,249.99999999999997
191,0.7,0.7,9.0,0.1,100,141.33399999999995
193,0.8,0.1,3.0,0.1,100,491.33367
195,0.8,0.1,7.7,0.1,100,389.33399999999995
197,0.8,0.1,9.0,0.1,100,358.0
199,0.8,0.2,3.0,0.1,100,492.0
201,0.8,0.2,7.7,0.1,100,408.0
203,0.8,0.2,9.0,0.1,100,375.33299999999997
205,0.8,0.3,3.0,0.1,100,490.66633
207,0.8,0.3,7.7,0.1,100,393.33399999999995
209,0.8,0.3,9.0,0.1,100,362.0
211,0.8,0.4,3.0,0.1,100,489.99967000000004
213,0.8,0.4,7.7,0.1,100,374.0
215,0.8,0.4,9.0,0.1,100,319.33299999999997
217,0.8,0.5,3.0,0.1,100,486.0
219,0.8,0.5,7.7,0.1,100,336.0
221,0.8,0.5,9.0,0.1,100,260.0
223,0.8,0.6,3.0,0.1,100,479.3333
225,0.8,0.6,7.7,0.1,100,271.33299999999997
227,0.8,0.6,9.0,0.1,100,186.66699999999997
229,0.8,0.7,3.0,0.1,100,470.6667
231,0.8,0.7,7.7,0.1,100,207.33300000000003
233,0.8,0.7,9.0,0.1,100,122.0
235,0.8,0.8,3.0,0.1,100,451.333
237,0.8,0.8,7.7,0.1,100,132.66699999999997
239,0.8,0.8,9.0,0.1,100,75.33399999999995
241,0.9,0.1,3.0,0.1,100,490.667
243,0.9,0.1,7.7,0.1,100,382.667
245,0.9,0.1,9.0,0.1,100,348.66600000000005
247,0.9,0.2,3.0,0.1,100,491.333
249,0.9,0.2,7.7,0.1,100,401.33369999999996
251,0.9,0.2,9.0,0.1,100,371.333
253,0.9,0.3,3.0,0.1,100,491.33333
255,0.9,0.3,7.7,0.1,100,389.33399999999995
266,0.9,0.3,9.0,0.1,100,352.66700000000003
268,0.9,0.4,3.0,0.1,100,486.66630000000004
270,0.9,0.4,7.7,0.1,100,360.66600000000005
272,0.9,0.4,9.0,0.1,100,308.667
274,0.9,0.5,3.0,0.1,100,480.66630000000004
285,0.9,0.5,5.0,0.1,100,430.66630000000004
296,0.9,0.5,7.7,0.1,100,310.66600000000005
307,0.9,0.5,9.0,0.1,100,239.33399999999995
318,0.9,0.6,3.0,0.1,100,474.667
320,0.9,0.6,7.7,0.1,100,240.0
322,0.9,0.6,9.0,0.1,100,158.66699999999997
324,0.9,0.7,3.0,0.1,100,458.66630000000004
326,0.9,0.7,7.7,0.1,100,148.0
328,0.9,0.7,9.0,0.1,100,102.0
330,0.9,0.8,3.0,0.1,100,438.6667
332,0.9,0.8,7.7,0.1,100,94.0
334,0.9,0.8,9.0,0.1,100,73.33300000000003
336,0.9,0.9,3.0,0.1,100,400.6667
338,0.9,0.9,7.7,0.1,100,65.33300000000003
349,0.9,0.9,9.0,0.1,100,57.33300000000003
